{
  "linkset": [
    {
      "anchor": "/system/menu/main/linkset",
      "item": [
        {
          "href": "/",
          "title": "Home",
          "drupal-menu-hierarchy": [".000"],
          "drupal-menu-machine-name": ["main"]
        },
        {
          "href": "/about",
          "title": "About us",
          "drupal-menu-hierarchy": [".001"],
          "drupal-menu-machine-name": ["main"]
        },
        {
          "href": "/about/custom-attributes",
          "title": "Custom attributes test page",
          "drupal-menu-hierarchy": [".001.000"],
          "class": [
            "foo",
            "bar",
            "1729",
            "1",
            "",
            "0",
            "-1",
            "3.141592"
          ],
          "data-baz": [
            "42"
          ],
          "¯\\_(ツ)_/¯": ["ok"],
          "drupal-menu-machine-name": ["main"]
        },
        {
          "href": "/about/name",
          "title": "Our name",
          "drupal-menu-hierarchy": [".001.001"],
          "drupal-menu-machine-name": ["main"]
        }
      ]
    }
  ]
}
